{
	"info": {
		"_postman_id": "7afa18a4-8529-466b-8840-a79a6c13cc4e",
		"name": "Yaraku Book App Collection",
		"schema": "https://schema.getpostman.com/json/collection/v2.1.0/collection.json"
	},
	"item": [
		{
			"name": "Create New Book and Author",
			"event": [
				{
					"listen": "test",
					"script": {
						"exec": [
							"pm.test(\"Status code is 200\" , function(){",
							"    pm.response.to.have.status(200)",
							"})",
							"",
							"pm.test(\"Response successful\" , function(){",
							"    pm.response.to.be.json;",
							"    pm.response.to.not.have.jsonBody(\"errors\");",
							"})",
							""
						],
						"type": "text/javascript"
					}
				}
			],
			"request": {
				"method": "POST",
				"header": [],
				"body": {
					"mode": "raw",
					"raw": "{\n    \"book_title\":  \"The Suspect\", \n    \"book_author\": \"Michael Robothamkjkjkjkj\"\n}",
					"options": {
						"raw": {
							"language": "json"
						}
					}
				},
				"url": {
					"raw": "{{BASE_URL}}/api/books/add",
					"host": [
						"{{BASE_URL}}"
					],
					"path": [
						"api",
						"books",
						"add"
					]
				}
			},
			"response": []
		},
		{
			"name": "Get All Books",
			"event": [
				{
					"listen": "test",
					"script": {
						"exec": [
							"pm.test(\"Status code is 200\" , function(){",
							"    pm.response.to.have.status(200)",
							"})",
							"",
							"pm.test(\"Response successful\" , function(){",
							"    pm.response.to.be.json;",
							"    pm.response.to.not.have.jsonBody(\"errors\");",
							"    pm.response.to.have.jsonBody(\"books\");",
							"})",
							"",
							"pm.test(\"Response contains data\" , function(){",
							"    var jsonData = JSON.parse(responseBody);",
							"    pm.response.to.be.json;",
							"    pm.response.to.have.jsonBody(\"books[0].id\");",
							"    pm.globals.set(\"bookId\", jsonData.books[0].id);",
							"})"
						],
						"type": "text/javascript"
					}
				}
			],
			"protocolProfileBehavior": {
				"disableBodyPruning": true
			},
			"request": {
				"method": "GET",
				"header": [],
				"body": {
					"mode": "raw",
					"raw": "",
					"options": {
						"raw": {
							"language": "json"
						}
					}
				},
				"url": {
					"raw": "{{BASE_URL}}/api/books/all",
					"host": [
						"{{BASE_URL}}"
					],
					"path": [
						"api",
						"books",
						"all"
					]
				}
			},
			"response": []
		},
		{
			"name": "Delete Book",
			"event": [
				{
					"listen": "test",
					"script": {
						"exec": [
							"pm.test(\"Status code is 200\" , function(){",
							"    pm.response.to.have.status(200)",
							"})",
							"",
							"pm.test(\"Response successful\" , function(){",
							"    pm.response.to.be.json;",
							"    pm.response.to.not.have.jsonBody(\"errors\");",
							"})"
						],
						"type": "text/javascript"
					}
				}
			],
			"request": {
				"method": "POST",
				"header": [],
				"body": {
					"mode": "raw",
					"raw": "{\n    \"book_id\":  {{bookId}}\n}",
					"options": {
						"raw": {
							"language": "json"
						}
					}
				},
				"url": {
					"raw": "{{BASE_URL}}/api/books/delete",
					"host": [
						"{{BASE_URL}}"
					],
					"path": [
						"api",
						"books",
						"delete"
					]
				}
			},
			"response": []
		},
		{
			"name": "Update Book Author",
			"event": [
				{
					"listen": "test",
					"script": {
						"exec": [
							"pm.test(\"Status code is 200\" , function(){",
							"    pm.response.to.have.status(200)",
							"})",
							"",
							"pm.test(\"Response successful\" , function(){",
							"    pm.response.to.be.json;",
							"    pm.response.to.not.have.jsonBody(\"errors\");",
							"})"
						],
						"type": "text/javascript"
					}
				}
			],
			"request": {
				"method": "POST",
				"header": [],
				"body": {
					"mode": "raw",
					"raw": "{\n    \"book_id\":  {{bookId}}, \n    \"author_name\": \"Michael Robotham\"\n}",
					"options": {
						"raw": {
							"language": "json"
						}
					}
				},
				"url": {
					"raw": "{{BASE_URL}}/api/books/update/author",
					"host": [
						"{{BASE_URL}}"
					],
					"path": [
						"api",
						"books",
						"update",
						"author"
					]
				}
			},
			"response": []
		},
		{
			"name": "Search Books and Authors",
			"event": [
				{
					"listen": "test",
					"script": {
						"exec": [
							"pm.test(\"Status code is 200\" , function(){",
							"    pm.response.to.have.status(200)",
							"})",
							"",
							"pm.test(\"Response successful\" , function(){",
							"    pm.response.to.be.json;",
							"    pm.response.to.not.have.jsonBody(\"errors\");",
							"    pm.response.to.have.jsonBody(\"books\");",
							"})",
							"",
							"pm.test(\"Response contains data\" , function(){",
							"    pm.response.to.be.json;",
							"    pm.response.to.have.jsonBody(\"books[0].id\");",
							"})"
						],
						"type": "text/javascript"
					}
				}
			],
			"protocolProfileBehavior": {
				"disableBodyPruning": true
			},
			"request": {
				"method": "GET",
				"header": [],
				"body": {
					"mode": "raw",
					"raw": "{\n    \"query\": \"Michael Robotham\"\n}",
					"options": {
						"raw": {
							"language": "json"
						}
					}
				},
				"url": {
					"raw": "{{BASE_URL}}/api/books/search",
					"host": [
						"{{BASE_URL}}"
					],
					"path": [
						"api",
						"books",
						"search"
					]
				}
			},
			"response": []
		},
		{
			"name": "Sort Books by Title",
			"event": [
				{
					"listen": "test",
					"script": {
						"exec": [
							"pm.test(\"Status code is 200\" , function(){",
							"    pm.response.to.have.status(200)",
							"})",
							"",
							"pm.test(\"Response successful\" , function(){",
							"    pm.response.to.be.json;",
							"    pm.response.to.not.have.jsonBody(\"errors\");",
							"    pm.response.to.have.jsonBody(\"books\");",
							"})",
							"",
							"pm.test(\"Response contains data\" , function(){",
							"    pm.response.to.be.json;",
							"    pm.response.to.have.jsonBody(\"books[0].id\");",
							"})"
						],
						"type": "text/javascript"
					}
				}
			],
			"protocolProfileBehavior": {
				"disableBodyPruning": true
			},
			"request": {
				"method": "GET",
				"header": [],
				"body": {
					"mode": "raw",
					"raw": "{\n    \"sort_by\": \"authors\"\n}",
					"options": {
						"raw": {
							"language": "json"
						}
					}
				},
				"url": {
					"raw": "{{BASE_URL}}/api/books/sort",
					"host": [
						"{{BASE_URL}}"
					],
					"path": [
						"api",
						"books",
						"sort"
					]
				}
			},
			"response": []
		}
	],
	"event": [
		{
			"listen": "prerequest",
			"script": {
				"type": "text/javascript",
				"exec": [
					""
				]
			}
		},
		{
			"listen": "test",
			"script": {
				"type": "text/javascript",
				"exec": [
					""
				]
			}
		}
	],
	"variable": [
		{
			"key": "BASE_URL",
			"value": "https://yaraku.theservermechanic.com"
		},
		{
			"key": "bookId",
			"value": "1"
		}
	]
}